{
    "prodName": "SomeProdName3",
    "prodServerRole": "SomeProdServerRole3",
    "prodVersion": "1.2.3",
    "jira": {
        "id": "SomeJiraId3"
    },
    "binaries": [
        {
            "artifactURL": "https://someArtifactURL_31",
            "binaryName": "",
            "checksum": "",
            "scan": {
                "scanType": "Xray",
                "scanURL": "someurl",
                "scanFormat": "pdf"
            }
        },
        {
            "artifactURL": "https://someArtifactURL_32",
            "binaryName": "",
            "checksum": "",
            "scan": {
                "scanType": "checkmarx",
                "scanURL": "someurl",
                "scanFormat": "doc"
            }
        }
    ],
    "images": [
        {
            "registry": "someDockerreg31",
            "imageName": "",
            "imageTag": "",
            "checksum": "",
            "scan": {
                "scanType": "Xray",
                "scanURL": "someurl",
                "scanFormat": "xml"
            }
        },
        {
            "registry": "someDockerreg32",
            "imageName": "",
            "imageTag": "",
            "checksum": "",
            "scan": {
                "scanType": "Xray",
                "scanURL": "someurl",
                "scanFormat": "pdf"
            }
        }
    ],
    "asciis": [
        {
            "repoURL": "www.git.com/somerepo31",
            "commitId": "",
            "commitTag": "tag0",
            "checksum": "",
            "scan": {
                "scanType": "checkmarx",
                "scanURL": "someurl",
                "scanFormat": "pdf"
            }
        }
    ]
}